+--------------+---------+-------------------+---------------+-------------+
|     Page     | RTT(ms) | PLT : non-TFO (s) | PLT : TFO (s) | Improvement |
+--------------+---------+-------------------+---------------+-------------+
| amazon.html  |    20   |        1.77       |      1.25     |     29%     |
| amazon.html  |   100   |        8.19       |      5.09     |     38%     |
| amazon.html  |   200   |       16.17       |      9.81     |     39%     |
| nytimes.html |    20   |        3.13       |      2.19     |     30%     |
| nytimes.html |   100   |       14.36       |      8.81     |     39%     |
| nytimes.html |   200   |       28.12       |     17.34     |     38%     |
|   tcp.html   |    20   |        0.57       |      0.35     |     39%     |
|   tcp.html   |   100   |        2.65       |      1.66     |     37%     |
|   tcp.html   |   200   |        5.25       |      3.26     |     38%     |
|   wsj.html   |    20   |        2.02       |      1.51     |     25%     |
|   wsj.html   |   100   |        9.61       |      5.94     |     38%     |
|   wsj.html   |   200   |        18.6       |     12.43     |     33%     |
+--------------+---------+-------------------+---------------+-------------+