+--------------+---------+-------------------+---------------+-------------+
|     Page     | RTT(ms) | PLT : non-TFO (s) | PLT : TFO (s) | Improvement |
+--------------+---------+-------------------+---------------+-------------+
| amazon.html  |    20   |        1.83       |      1.28     |     30%     |
| amazon.html  |   100   |        8.18       |      5.09     |     38%     |
| amazon.html  |   200   |       16.38       |      9.79     |     40%     |
| nytimes.html |    20   |        3.18       |      2.25     |     29%     |
| nytimes.html |   100   |       14.32       |      8.85     |     38%     |
| nytimes.html |   200   |       28.54       |     17.34     |     39%     |
|   tcp.html   |    20   |        0.57       |      0.35     |     39%     |
|   tcp.html   |   100   |        2.65       |      1.65     |     38%     |
|   tcp.html   |   200   |        5.25       |      3.25     |     38%     |
|   wsj.html   |    20   |        2.03       |      1.54     |     24%     |
|   wsj.html   |   100   |        9.41       |      6.04     |     36%     |
|   wsj.html   |   200   |       18.81       |     12.42     |     34%     |
+--------------+---------+-------------------+---------------+-------------+