+--------------+---------+-------------------+---------------+-------------+
|     Page     | RTT(ms) | PLT : non-TFO (s) | PLT : TFO (s) | Improvement |
+--------------+---------+-------------------+---------------+-------------+
| amazon.html  |    20   |        1.76       |      1.29     |     27%     |
| amazon.html  |   100   |        8.39       |      5.67     |     32%     |
| amazon.html  |   200   |       16.38       |      9.98     |     39%     |
| nytimes.html |    20   |        3.15       |      2.3      |     27%     |
| nytimes.html |   100   |       14.24       |      8.91     |     37%     |
| nytimes.html |   200   |       28.55       |     17.35     |     39%     |
|   tcp.html   |    20   |        0.57       |      0.37     |     35%     |
|   tcp.html   |   100   |        2.65       |      1.66     |     37%     |
|   tcp.html   |   200   |        5.25       |      3.26     |     38%     |
|   wsj.html   |    20   |        2.05       |      1.52     |     26%     |
|   wsj.html   |   100   |        9.5        |      6.3      |     34%     |
|   wsj.html   |   200   |        19.0       |     11.25     |     41%     |
+--------------+---------+-------------------+---------------+-------------+