+--------------+---------+-------------------+---------------+-------------+
|     Page     | RTT(ms) | PLT : non-TFO (s) | PLT : TFO (s) | Improvement |
+--------------+---------+-------------------+---------------+-------------+
| amazon.html  |    20   |        1.76       |      1.27     |     28%     |
| amazon.html  |   100   |        8.18       |      5.09     |     38%     |
| amazon.html  |   200   |       16.18       |      9.79     |     39%     |
| nytimes.html |    20   |        3.19       |      2.2      |     31%     |
| nytimes.html |   100   |       14.45       |      8.82     |     39%     |
| nytimes.html |   200   |       28.56       |     17.36     |     39%     |
|   tcp.html   |    20   |        0.57       |      0.35     |     39%     |
|   tcp.html   |   100   |        2.65       |      1.67     |     37%     |
|   tcp.html   |   200   |        5.25       |      2.85     |     46%     |
|   wsj.html   |    20   |        2.05       |      1.53     |     25%     |
|   wsj.html   |   100   |        9.39       |      6.12     |     35%     |
|   wsj.html   |   200   |       18.62       |     11.85     |     36%     |
+--------------+---------+-------------------+---------------+-------------+